{
"topics": 
    {
     "topic_0": {"samoograniczaj\u0105ce": 0.05, "serca": 0.042, "predysponowanych": 0.041, "najwa\u017cniejsza": 0.032, "infekcji": 0.031},
     "topic_1": {"drzwi": 0.016, "Na": 0.016, "\u015bcianie": 0.015, "oknem": 0.014, "ogromny": 0.012}, 
     "topic_2": {"oknem": 0.02, "drzwi": 0.015, "lokach": 0.015, "wysokim": 0.014, "drzwiami": 0.014}, 
     "topic_3": {"\u015bcianie": 0.019, "Boskiej": 0.017, "proste": 0.016, "drzwi": 0.012, "jarz\u0105cych": 0.012}, 
     "topic_4": {"zapalenie": 0.048, "przyczyna": 0.043, "myofibroblast\u00f3w": 0.043, "niedokrwie\u0144": 0.038, "martwicze": 0.036}, 
     "topic_5": {"nut\u0119": 0.02, "drzwi": 0.018, "Oko\u0142o": 0.014, "Matki": 0.013, "wiejska": 0.013}, 
     "topic_6": {"oknem": 0.024, "drzwi": 0.02, "stary": 0.019, "drzwiami": 0.015, "obraz": 0.015}, 
     "topic_7": {"oknem": 0.029, "Boskiej": 0.02, "Na": 0.013, "obraz": 0.013, "nut\u0119": 0.013}, 
     "topic_8": {"naczynia": 0.082, "t\u0119tnic": 0.063, "zw\u0119\u017cenia": 0.056, "stopniowe": 0.028, "choroba": 0.026}, 
     "topic_9": {"proste": 0.024, "br\u0105zowych": 0.017, "nut\u0119": 0.017, "bab": 0.016, "rokiem": 0.014}, 
     "topic_10": {"nut\u0119": 0.016, "\u015bcianie": 0.015, "wiejska": 0.013, "obraz": 0.012, "izby": 0.012}, 
     "topic_11": {"dzieci": 0.05, "Kawasaki": 0.036, "zapalenie": 0.033, "\u015bcian": 0.032, "przyczyna": 0.024}, 
     "topic_12": {"oknem": 0.02, "boku": 0.014, "szarawym": 0.013, "Izba": 0.012, "otwarte": 0.012}, 
     "topic_13": {"oknem": 0.022, "pstre": 0.016, "sprz\u0119ty": 0.013, "proste": 0.012, "ogromny": 0.011}, 
     "topic_14": {"\u015bcianie": 0.019, "Na": 0.015, "Matki": 0.015, "pstre": 0.015, "wiejska": 0.015}, 
     "background_15": {"dzieci": 0.003, "Na": 0.003, "oknem": 0.003, "rokiem": 0.003, "drzwi": 0.003}
    }, 
"theta": 
    {
    "topic_0": [["wesele.txt", "kawasaki.txt", "text.txt"], [0.342, 0.687, 0.12]], 
    "topic_1": [["wesele.txt", "kawasaki.txt", "text.txt"], [0.464, 0.373, 0.333]],
    "topic_2": [["wesele.txt", "kawasaki.txt", "text.txt"], [0.457, 0.572, 0.256]],
    "topic_3": [["wesele.txt", "kawasaki.txt","text.txt"], [0.438, 0.343, 0.123]],
    "topic_4": [["wesele.txt", "kawasaki.txt","text.txt"], [0.523, 0.801, 0.111]],
    "topic_5": [["wesele.txt", "kawasaki.txt","text.txt"], [0.487, 0.308, 0.543]],
    "topic_6": [["wesele.txt", "kawasaki.txt","text.txt"], [1.0, 0.306, 0.98]],
    "topic_7": [["wesele.txt", "kawasaki.txt","text.txt"], [0.455, 0.426, 0]],
    "topic_8": [["wesele.txt", "kawasaki.txt","text.txt"], [0.268, 0.71, 0.15]],
    "topic_9": [["wesele.txt", "kawasaki.txt","text.txt"], [0.472, 0.627, 0.65]],
    "topic_10": [["wesele.txt", "kawasaki.txt","text.txt"], [0.866, 0.0, 0.7]],
    "topic_11": [["wesele.txt", "kawasaki.txt","text.txt"], [0.0, 1.0, 0.65]],
    "topic_12": [["wesele.txt", "kawasaki.txt","text.txt"], [0.552, 0.186, 0.33]],
    "topic_13": [["wesele.txt", "kawasaki.txt", "text.txt"], [0.843, 0.258, 0.125]],
    "topic_14": [["wesele.txt", "kawasaki.txt","text.txt"], [0.48, 0.443, 0.79]], 
    "background_15": [["wesele.txt", "kawasaki.txt","text.txt"], [0.463, 0.711, 0.22]]
    }
}